<?xml version="1.0" encoding="UTF-8"?>
<CustomTab xmlns="http://soap.sforce.com/2006/04/metadata">
    <label>Contact In-Form Support</label>
    <mobileReady>false</mobileReady>
    <motif>Custom94: Stethoscope</motif>
    <page>Contact_In_Form_Support</page>
</CustomTab>
