{
    "records": [
        {
            "attributes": {
                "type": "In_Form__Bedspace__c",
                "referenceId": "In_Form__Bedspace__cRef1"
            },
            "Name": "Test Bedspace Ajay 13"
        },
        {
            "attributes": {
                "type": "In_Form__Bedspace__c",
                "referenceId": "In_Form__Bedspace__cRef2"
            },
            "Name": "Test bed 1"
        },
        {
            "attributes": {
                "type": "In_Form__Bedspace__c",
                "referenceId": "In_Form__Bedspace__cRef3"
            },
            "Name": "Test bed 4"
        },
        {
            "attributes": {
                "type": "In_Form__Bedspace__c",
                "referenceId": "In_Form__Bedspace__cRef4"
            },
            "Name": "test bed 10"
        },
        {
            "attributes": {
                "type": "In_Form__Bedspace__c",
                "referenceId": "In_Form__Bedspace__cRef5"
            },
            "Name": "test bed 9"
        },
        {
            "attributes": {
                "type": "In_Form__Bedspace__c",
                "referenceId": "In_Form__Bedspace__cRef6"
            },
            "Name": "Test bed 6"
        },
        {
            "attributes": {
                "type": "In_Form__Bedspace__c",
                "referenceId": "In_Form__Bedspace__cRef7"
            },
            "Name": "Test bed 11"
        },
        {
            "attributes": {
                "type": "In_Form__Bedspace__c",
                "referenceId": "In_Form__Bedspace__cRef8"
            },
            "Name": "Test Bedspace 2"
        },
        {
            "attributes": {
                "type": "In_Form__Bedspace__c",
                "referenceId": "In_Form__Bedspace__cRef9"
            },
            "Name": "Test Bedspace 3"
        },
        {
            "attributes": {
                "type": "In_Form__Bedspace__c",
                "referenceId": "In_Form__Bedspace__cRef10"
            },
            "Name": "Test Bedspace 50"
        }
    ]
}